Introduction to cohortBuilder
…
Data: librarian

To present cohortBuilder’s functionality we’ll be
operating on librarian dataset. librarian is a
list of four tables, storing a sample of book library management
database.

cohortBuilder::librarian
#> $books
#> # A tibble: 17 × 6
#>   isbn              title                          genre publisher author copies
#>   <chr>             <chr>                          <chr> <chr>     <chr>   <int>
#> 1 0-385-50420-9     The Da Vinci Code              Crim… Transwor… Dan B…      7
#> 2 0-7679-0817-1     A Short History of Nearly Eve… Popu… Transwor… Bill …      4
#> 3 978-0-15-602943-8 The Time Traveler's Wife       Gene… Random H… Audre…      2
#> 4 0-224-06252-2     Atonement                      Gene… Random H… Ian M…      8
#> 5 0-676-97376-0     Life of Pi                     Gene… Canongate Yann …     11
#> # ℹ 12 more rows
#> 
#> $borrowers
#> # A tibble: 20 × 6
#>   id     registered address                           name  phone_number program
#>   <chr>  <date>     <chr>                             <chr> <chr>        <chr>  
#> 1 000001 2001-06-09 66 N. Evergreen Ave. Norristown,… Mrs.… 626-594-4729 premium
#> 2 000002 2002-08-10 8196 Windsor Road Muscatine, IA … Ms. … 919-530-5272 standa…
#> 3 000003 2003-02-15 6 Wood Lane Calumet City, IL 604… Inga… 706-669-5694 <NA>   
#> 4 000004 2004-06-14 18 Nut Swamp Road Merrimack, NH … Keys… 746-328-6598 standa…
#> 5 000005 2005-01-15 580 Chapel Rd. Delray Beach, FL … Ferd… 127-363-0738 premium
#> # ℹ 15 more rows
#> 
#> $issues
#> # A tibble: 50 × 4
#>   id     borrower_id isbn              date      
#>   <chr>  <chr>       <chr>             <date>    
#> 1 000001 000019      0-676-97976-9     2015-03-17
#> 2 000002 000010      978-0-7528-6053-4 2008-09-13
#> 3 000003 000016      0-09-177373-3     2014-09-28
#> 4 000004 000005      0-224-06252-2     2005-11-14
#> 5 000005 000004      0-340-89696-5     2006-03-19
#> # ℹ 45 more rows
#> 
#> $returns
#> # A tibble: 30 × 2
#>   id     date      
#>   <chr>  <date>    
#> 1 000001 2015-04-06
#> 2 000003 2014-10-23
#> 3 000004 2005-12-29
#> 4 000005 2006-03-26
#> 5 000006 2016-08-30
#> # ℹ 25 more rows
…
In the standard workflow we build Cohort on top of
Source. We achieve it with cohort
function:

librarian_cohort <- librarian_source %>%
  cohort()
class(librarian_cohort)
#> [1] "Cohort" "R6"

With the existing Cohort we may get underlying data with
get_data:

get_data(librarian_cohort)
#> $books
#> # A tibble: 17 × 6
#>   isbn              title                          genre publisher author copies
#>   <chr>             <chr>                          <chr> <chr>     <chr>   <int>
#> 1 0-385-50420-9     The Da Vinci Code              Crim… Transwor… Dan B…      7
#> 2 0-7679-0817-1     A Short History of Nearly Eve… Popu… Transwor… Bill …      4
#> 3 978-0-15-602943-8 The Time Traveler's Wife       Gene… Random H… Audre…      2
#> 4 0-224-06252-2     Atonement                      Gene… Random H… Ian M…      8
#> 5 0-676-97376-0     Life of Pi                     Gene… Canongate Yann …     11
#> # ℹ 12 more rows
#> 
#> $borrowers
#> # A tibble: 20 × 6
#>   id     registered address                           name  phone_number program
#>   <chr>  <date>     <chr>                             <chr> <chr>        <chr>  
#> 1 000001 2001-06-09 66 N. Evergreen Ave. Norristown,… Mrs.… 626-594-4729 premium
#> 2 000002 2002-08-10 8196 Windsor Road Muscatine, IA … Ms. … 919-530-5272 standa…
#> 3 000003 2003-02-15 6 Wood Lane Calumet City, IL 604… Inga… 706-669-5694 <NA>   
#> 4 000004 2004-06-14 18 Nut Swamp Road Merrimack, NH … Keys… 746-328-6598 standa…
#> 5 000005 2005-01-15 580 Chapel Rd. Delray Beach, FL … Ferd… 127-363-0738 premium
#> # ℹ 15 more rows
#> 
#> $issues
#> # A tibble: 50 × 4
#>   id     borrower_id isbn              date      
#>   <chr>  <chr>       <chr>             <date>    
#> 1 000001 000019      0-676-97976-9     2015-03-17
#> 2 000002 000010      978-0-7528-6053-4 2008-09-13
#> 3 000003 000016      0-09-177373-3     2014-09-28
#> 4 000004 000005      0-224-06252-2     2005-11-14
#> 5 000005 000004      0-340-89696-5     2006-03-19
#> # ℹ 45 more rows
#> 
#> $returns
#> # A tibble: 30 × 2
#>   id     date      
#>   <chr>  <date>    
#> 1 000001 2015-04-06
#> 2 000003 2014-10-23
#> 3 000004 2005-12-29
#> 4 000005 2006-03-26
#> 5 000006 2016-08-30
#> # ℹ 25 more rows
…
run(librarian_cohort)

Let’s check if the operation worked fine by checking the resulting
data:

get_data(librarian_cohort)
#> $books
#> # A tibble: 2 × 6
#>   isbn          title             genre                  publisher author copies
#>   <chr>         <chr>             <chr>                  <chr>     <chr>   <int>
#> 1 0-385-50420-9 The Da Vinci Code Crime, Thriller & Adv… Transwor… Dan B…      7
#> 2 0-671-02735-2 Angels and Demons Crime, Thriller & Adv… Transwor… Dan B…      4
#> 
#> $borrowers
#> # A tibble: 20 × 6
#>   id     registered address                           name  phone_number program
#>   <chr>  <date>     <chr>                             <chr> <chr>        <chr>  
#> 1 000001 2001-06-09 66 N. Evergreen Ave. Norristown,… Mrs.… 626-594-4729 premium
#> 2 000002 2002-08-10 8196 Windsor Road Muscatine, IA … Ms. … 919-530-5272 standa…
#> 3 000003 2003-02-15 6 Wood Lane Calumet City, IL 604… Inga… 706-669-5694 <NA>   
#> 4 000004 2004-06-14 18 Nut Swamp Road Merrimack, NH … Keys… 746-328-6598 standa…
#> 5 000005 2005-01-15 580 Chapel Rd. Delray Beach, FL … Ferd… 127-363-0738 premium
#> # ℹ 15 more rows
#> 
#> $issues
#> # A tibble: 50 × 4
#>   id     borrower_id isbn              date      
#>   <chr>  <chr>       <chr>             <date>    
#> 1 000001 000019      0-676-97976-9     2015-03-17
#> 2 000002 000010      978-0-7528-6053-4 2008-09-13
#> 3 000003 000016      0-09-177373-3     2014-09-28
#> 4 000004 000005      0-224-06252-2     2005-11-14
#> 5 000005 000004      0-340-89696-5     2006-03-19
#> # ℹ 45 more rows
#> 
#> $returns
#> # A tibble: 30 × 2
#>   id     date      
#>   <chr>  <date>    
#> 1 000001 2015-04-06
#> 2 000003 2014-10-23
#> 3 000004 2005-12-29
#> 4 000005 2006-03-26
#> 5 000006 2016-08-30
#> # ℹ 25 more rows
…
librarian_cohort <- librarian_source %>%
  cohort(
    author_filter,
    run_flow = TRUE
  )

when configuring filter along with creating cohort.

Now when the data filtered, how can we get data state before
filtering? With get_data it’s easy, just set
state = "pre":

get_data(librarian_cohort, state = "pre")
#> $books
#> # A tibble: 17 × 6
#>   isbn              title                          genre publisher author copies
#>   <chr>             <chr>                          <chr> <chr>     <chr>   <int>
#> 1 0-385-50420-9     The Da Vinci Code              Crim… Transwor… Dan B…      7
#> 2 0-7679-0817-1     A Short History of Nearly Eve… Popu… Transwor… Bill …      4
#> 3 978-0-15-602943-8 The Time Traveler's Wife       Gene… Random H… Audre…      2
#> 4 0-224-06252-2     Atonement                      Gene… Random H… Ian M…      8
#> 5 0-676-97376-0     Life of Pi                     Gene… Canongate Yann …     11
#> # ℹ 12 more rows
#> 
#> $borrowers
#> # A tibble: 20 × 6
#>   id     registered address                           name  phone_number program
#>   <chr>  <date>     <chr>                             <chr> <chr>        <chr>  
#> 1 000001 2001-06-09 66 N. Evergreen Ave. Norristown,… Mrs.… 626-594-4729 premium
#> 2 000002 2002-08-10 8196 Windsor Road Muscatine, IA … Ms. … 919-530-5272 standa…
#> 3 000003 2003-02-15 6 Wood Lane Calumet City, IL 604… Inga… 706-669-5694 <NA>   
#> 4 000004 2004-06-14 18 Nut Swamp Road Merrimack, NH … Keys… 746-328-6598 standa…
#> 5 000005 2005-01-15 580 Chapel Rd. Delray Beach, FL … Ferd… 127-363-0738 premium
#> # ℹ 15 more rows
#> 
#> $issues
#> # A tibble: 50 × 4
#>   id     borrower_id isbn              date      
#>   <chr>  <chr>       <chr>             <date>    
#> 1 000001 000019      0-676-97976-9     2015-03-17
#> 2 000002 000010      978-0-7528-6053-4 2008-09-13
#> 3 000003 000016      0-09-177373-3     2014-09-28
#> 4 000004 000005      0-224-06252-2     2005-11-14
#> 5 000005 000004      0-340-89696-5     2006-03-19
#> # ℹ 45 more rows
#> 
#> $returns
#> # A tibble: 30 × 2
#>   id     date      
#>   <chr>  <date>    
#> 1 000001 2015-04-06
#> 2 000003 2014-10-23
#> 3 000004 2005-12-29
#> 4 000005 2006-03-26
#> 5 000006 2016-08-30
#> # ℹ 25 more rows
…
run(librarian_cohort)
get_data(librarian_cohort, step_id = 1L)
#> $books
#> # A tibble: 2 × 6
#>   isbn          title             genre                  publisher author copies
#>   <chr>         <chr>             <chr>                  <chr>     <chr>   <int>
#> 1 0-385-50420-9 The Da Vinci Code Crime, Thriller & Adv… Transwor… Dan B…      7
#> 2 0-671-02735-2 Angels and Demons Crime, Thriller & Adv… Transwor… Dan B…      4
#> 
#> $borrowers
#> # A tibble: 6 × 6
#>   id     registered address                           name  phone_number program
#>   <chr>  <date>     <chr>                             <chr> <chr>        <chr>  
#> 1 000001 2001-06-09 66 N. Evergreen Ave. Norristown,… Mrs.… 626-594-4729 premium
#> 2 000005 2005-01-15 580 Chapel Rd. Delray Beach, FL … Ferd… 127-363-0738 premium
#> 3 000008 2006-11-15 9533 Delaware Dr. Peabody, MA 01… Mrs.… 460-779-8714 premium
#> 4 000011 2009-03-24 745 E. Sussex Drive Mahwah, NJ 0… Mr. … 378-884-6509 premium
#> 5 000013 2011-09-30 534 Iroquois Ave. Watertown, MA … Dr. … 104-832-8013 premium
#> # ℹ 1 more row
#> 
#> $issues
#> # A tibble: 50 × 4
#>   id     borrower_id isbn              date      
#>   <chr>  <chr>       <chr>             <date>    
#> 1 000001 000019      0-676-97976-9     2015-03-17
#> 2 000002 000010      978-0-7528-6053-4 2008-09-13
#> 3 000003 000016      0-09-177373-3     2014-09-28
#> 4 000004 000005      0-224-06252-2     2005-11-14
#> 5 000005 000004      0-340-89696-5     2006-03-19
#> # ℹ 45 more rows
#> 
#> $returns
#> # A tibble: 30 × 2
#>   id     date      
#>   <chr>  <date>    
#> 1 000001 2015-04-06
#> 2 000003 2014-10-23
#> 3 000004 2005-12-29
#> 4 000005 2006-03-26
#> 5 000006 2016-08-30
#> # ℹ 25 more rows
#> 
#> attr(,"class")
#> [1] "tblist"
#> attr(,"call")
#> as.tblist(librarian)
get_data(librarian_cohort, step_id = 2L)
#> $books
#> # A tibble: 1 × 6
#>   isbn          title             genre                  publisher author copies
#>   <chr>         <chr>             <chr>                  <chr>     <chr>   <int>
#> 1 0-671-02735-2 Angels and Demons Crime, Thriller & Adv… Transwor… Dan B…      4
#> 
#> $borrowers
#> # A tibble: 6 × 6
#>   id     registered address                           name  phone_number program
#>   <chr>  <date>     <chr>                             <chr> <chr>        <chr>  
#> 1 000001 2001-06-09 66 N. Evergreen Ave. Norristown,… Mrs.… 626-594-4729 premium
#> 2 000005 2005-01-15 580 Chapel Rd. Delray Beach, FL … Ferd… 127-363-0738 premium
#> 3 000008 2006-11-15 9533 Delaware Dr. Peabody, MA 01… Mrs.… 460-779-8714 premium
#> 4 000011 2009-03-24 745 E. Sussex Drive Mahwah, NJ 0… Mr. … 378-884-6509 premium
#> 5 000013 2011-09-30 534 Iroquois Ave. Watertown, MA … Dr. … 104-832-8013 premium
#> # ℹ 1 more row
#> 
#> $issues
#> # A tibble: 50 × 4
#>   id     borrower_id isbn              date      
#>   <chr>  <chr>       <chr>             <date>    
#> 1 000001 000019      0-676-97976-9     2015-03-17
#> 2 000002 000010      978-0-7528-6053-4 2008-09-13
#> 3 000003 000016      0-09-177373-3     2014-09-28
#> 4 000004 000005      0-224-06252-2     2005-11-14
#> 5 000005 000004      0-340-89696-5     2006-03-19
#> # ℹ 45 more rows
#> 
#> $returns
#> # A tibble: 30 × 2
#>   id     date      
#>   <chr>  <date>    
#> 1 000001 2015-04-06
#> 2 000003 2014-10-23
#> 3 000004 2005-12-29
#> 4 000005 2006-03-26
#> 5 000006 2016-08-30
#> # ℹ 25 more rows
…
